…
    ## Warning: `unnest()` has a new interface. See `?unnest` for details.
    ## ℹ Try `df %>% unnest(c(results_tidy, results_glance))`, with `mutate()` if
    ##   needed.

``` r
boot_straps |>
  group_by(.id, r.squared) |>
  summarize(log_b0_b1 = log(prod(estimate)), .groups = "drop") 
```

    ## # A tibble: 5,000 × 3
    ##    .id   r.squared log_b0_b1
    ##    <chr>     <dbl>     <dbl>
    ##  1 0001      0.907      2.04
    ##  2 0002      0.896      2.03
    ##  3 0003      0.918      2.05
    ##  4 0004      0.899      2.07
    ##  5 0005      0.913      1.97
    ##  6 0006      0.919      1.99
    ##  7 0007      0.918      2.00
    ##  8 0008      0.907      2.00
    ##  9 0009      0.916      2.01
    ## 10 0010      0.918      2.02
    ## # ℹ 4,990 more rows
…
